^C:\USERS\REV\DESKTOP\개인폴더\김민규\자료구조\DS 19\4\DEBUG\MAIN.OBJ
C:\USERS\REV\DESKTOP\개인폴더\김민규\자료구조\DS 19\DEBUG\4.ILK
C:\USERS\REV\DESKTOP\개인폴더\김민규\자료구조\DS 19\DEBUG\4.EXE
C:\USERS\REV\DESKTOP\개인폴더\김민규\자료구조\DS 19\DEBUG\4.PDB
