^C:\USERS\2015110705\DOCUMENTS\VISUAL STUDIO 2010\PROJECTS\DS 19\2\DEBUG\MAIN.OBJ
C:\USERS\2015110705\DOCUMENTS\VISUAL STUDIO 2010\PROJECTS\DS 19\DEBUG\2.ILK
C:\USERS\2015110705\DOCUMENTS\VISUAL STUDIO 2010\PROJECTS\DS 19\DEBUG\2.EXE
C:\USERS\2015110705\DOCUMENTS\VISUAL STUDIO 2010\PROJECTS\DS 19\2\DEBUG\2.EXE.INTERMEDIATE.MANIFEST
C:\USERS\2015110705\DOCUMENTS\VISUAL STUDIO 2010\PROJECTS\DS 19\DEBUG\2.PDB
