^C:\USERS\REV\DESKTOP\개인폴더\김민규\자료구조\DS 19\2\MAIN.C
C:\USERS\REV\DESKTOP\개인폴더\김민규\자료구조\DS 19\2\DEBUG\VC120.PDB
C:\USERS\REV\DESKTOP\개인폴더\김민규\자료구조\DS 19\2\DEBUG\VC120.IDB
C:\USERS\REV\DESKTOP\개인폴더\김민규\자료구조\DS 19\2\DEBUG\MAIN.OBJ
