^C:\USERS\REV\DESKTOP\개인폴더\김민규\자료구조\DS 19\2\DEBUG\MAIN.OBJ
C:\USERS\REV\DESKTOP\개인폴더\김민규\자료구조\DS 19\DEBUG\2.ILK
C:\USERS\REV\DESKTOP\개인폴더\김민규\자료구조\DS 19\DEBUG\2.EXE
C:\USERS\REV\DESKTOP\개인폴더\김민규\자료구조\DS 19\DEBUG\2.PDB
